Basics of data import and cleaning in pathviewr
…
.csv files exported from Motive can be imported via
read_motive_csv()

## Import the Motive example data included in 
## the package

motive_data <-
  read_motive_csv(
    system.file("extdata", "pathviewr_motive_example_data.csv",
                package = 'pathviewr')
  )

## This produces a tibble 
motive_data
#> # A tibble: 934 × 26
#>    frame time_…¹ devic…² devic…³ devic…⁴ devic…⁵ devic…⁶ devic…⁷ devic…⁸ devic…⁹
#>    <int>   <dbl>   <dbl>   <dbl>   <dbl>   <dbl>   <dbl>   <dbl>   <dbl>   <dbl>
#>  1 72210    722.  0.135   -0.977 -0.112   0.122   0.142    0.160    2.00 1.13e-4
#>  2 72211    722.  0.0819  -0.978 -0.0991  0.165   0.137    0.164    1.97 1.05e-4
#>  3 72212    722.  0.211   -0.973 -0.0939  0.0311  0.125    0.166    1.95 1.15e-4
#>  4 72213    722.  0.196   -0.972 -0.128   0.0351  0.118    0.168    1.92 2.02e-4
#>  5 72214    722.  0.131   -0.975 -0.121   0.132   0.113    0.173    1.89 1.06e-4
#>  6 72215    722.  0.0935  -0.975 -0.105   0.173   0.107    0.178    1.86 9.5 e-5
#>  7 72216    722.  0.180   -0.975 -0.106   0.0807  0.0954   0.181    1.84 1.14e-4
#>  8 72217    722.  0.164   -0.972 -0.149   0.0824  0.0875   0.184    1.81 1.17e-4
#>  9 72218    722.  0.120   -0.973 -0.149   0.131   0.0806   0.189    1.79 1.21e-4
#> 10 72219    722.  0.155   -0.970 -0.120   0.145   0.0716   0.197    1.76 1.31e-4
#> # … with 924 more rows, 16 more variables: device03_rotation_x <dbl>,
#> #   device03_rotation_y <dbl>, device03_rotation_z <dbl>,
#> #   device03_rotation_w <dbl>, device03_position_x <dbl>,
#> #   device03_position_y <dbl>, device03_position_z <dbl>,
#> #   device03_mean_marker_error <dbl>, device05_rotation_x <dbl>,
#> #   device05_rotation_y <dbl>, device05_rotation_z <dbl>,
#> #   device05_rotation_w <dbl>, device05_position_x <dbl>, …
…
## Import the Flydra example data included in 
## the package
flydra_data <-
  read_flydra_mat(
    system.file("extdata", 
                "pathviewr_flydra_example_data.mat",
                package = 'pathviewr'),
    subject_name = "birdie_wooster"
  )

## Similarly, this produces a tibble with important 
## metadata as attributes
flydra_data
#> # A tibble: 7,744 × 10
#>    frame time_sec subject     posit…¹ positi…² posit…³ veloc…⁴ length…⁵ width_…⁶
#>    <dbl>    <dbl> <chr>         <dbl>    <dbl>   <dbl>   <dbl>    <dbl>    <dbl>
#>  1   746     0    birdie_woo…   0.869 -0.00417    1.31 0        0        0      
#>  2   747     0.01 birdie_woo…   0.864 -0.00614    1.31 2.59e-5 -2.40e-5 -9.84e-6
#>  3   748     0.02 birdie_woo…   0.863 -0.00695    1.31 1.01e-3 -4.52e-4 -9.04e-4
#>  4   749     0.03 birdie_woo…   0.862 -0.00672    1.31 1.79e-3 -1.37e-3  1.54e-5
#>  5   750     0.04 birdie_woo…   0.862 -0.00644    1.31 2.86e-3 -4.71e-4  2.68e-3
#>  6   751     0.05 birdie_woo…   0.862 -0.00619    1.31 6.10e-3  1.56e-4  6.01e-3
#>  7   752     0.06 birdie_woo…   0.863 -0.00667    1.31 1.15e-2  7.99e-3 -3.86e-3
#>  8   753     0.07 birdie_woo…   0.864 -0.00712    1.31 3.45e-2  2.42e-2 -1.17e-2
#>  9   754     0.08 birdie_woo…   0.865 -0.00727    1.31 4.33e-2  3.14e-2 -1.21e-2
#> 10   755     0.09 birdie_woo…   0.865 -0.00760    1.31 3.85e-2  2.75e-2 -1.64e-2
#> # … with 7,734 more rows, 1 more variable: height_inst_vel <dbl>, and
#> #   abbreviated variable names ¹​position_length, ²​position_width,
#> #   ³​position_height, ⁴​velocity, ⁵​length_inst_vel, ⁶​width_inst_vel
…
